test/tb.vcd
$date
	Mon Nov 11 08:46:35 2024
$end
$version
	Icarus Verilog
$end
$timescale
	1ps
$end
$scope module tb $end
$var wire 8 ! uio_oe [7:0] $end
$var wire 8 " uo_out [7:0] $end
$var wire 8 # uio_out [7:0] $end
$var reg 1 $ clk $end
$var reg 1 % ena $end
$var reg 1 & rst_n $end
$var reg 8 ' ui_in [7:0] $end
$var reg 8 ( uio_in [7:0] $end
$scope module user_project $end
$var wire 1 $ clk $end
$var wire 1 % ena $end
$var wire 1 & rst_n $end
$var wire 8 ) ui_in [7:0] $end
$var wire 8 * uio_in [7:0] $end
$var wire 8 + uio_oe [7:0] $end
$var wire 8 , uo_out [7:0] $end
$var wire 8 - uio_out [7:0] $end
$var wire 8 . state3 [7:0] $end
$var wire 8 / state2 [7:0] $end
$var wire 8 0 state1 [7:0] $end
$var wire 1 1 spike3 $end
$var wire 1 2 spike2 $end
$var wire 1 3 spike1 $end
$var wire 12 4 noisy_input3 [11:0] $end
$var wire 12 5 noisy_input2 [11:0] $end
$var wire 12 6 noisy_input1 [11:0] $end
$var wire 1 7 _unused $end
$scope module lif1 $end
$var wire 1 $ clk $end
$var wire 12 8 current [11:0] $end
$var wire 1 & reset_n $end
$var wire 12 9 sum [11:0] $end
$var wire 1 3 spike $end
$var wire 12 : scaled_state [11:0] $end
$var wire 8 ; next_state [7:0] $end
$var reg 8 < adapt_threshold [7:0] $end
$var reg 8 = spike_counter [7:0] $end
$var reg 8 > state [7:0] $end
$var reg 8 ? threshold [7:0] $end
$upscope $end
$scope module lif2 $end
$var wire 1 $ clk $end
$var wire 12 @ current [11:0] $end
$var wire 1 & reset_n $end
$var wire 12 A sum [11:0] $end
$var wire 1 2 spike $end
$var wire 12 B scaled_state [11:0] $end
$var wire 8 C next_state [7:0] $end
$var reg 8 D adapt_threshold [7:0] $end
$var reg 8 E spike_counter [7:0] $end
$var reg 8 F state [7:0] $end
$var reg 8 G threshold [7:0] $end
$upscope $end
$scope module lif3 $end
$var wire 1 $ clk $end
$var wire 12 H current [11:0] $end
$var wire 1 & reset_n $end
$var wire 12 I sum [11:0] $end
$var wire 1 1 spike $end
$var wire 12 J scaled_state [11:0] $end
$var wire 8 K next_state [7:0] $end
$var reg 8 L adapt_threshold [7:0] $end
$var reg 8 M spike_counter [7:0] $end
$var reg 8 N state [7:0] $end
$var reg 8 O threshold [7:0] $end
$upscope $end
$upscope $end
$upscope $end
$enddefinitions $end
#0
$dumpvars
b110010 O
b0 N
b0 M
b11111010 L
b11 K
b0 J
b11 I
b11 H
b110010 G
b0 F
b0 E
b11111010 D
b10 C
b0 B
b10 A
b10 @
b110010 ?
b0 >
b0 =
b11111010 <
b1 ;
b0 :
b1 9
b1 8
07
b1 6
b10 5
b11 4
03
02
01
b0 0
b0 /
b0 .
b0 -
b0 ,
b1 +
bx *
b0 )
bx (
b0 '
0&
x%
1$
b0 #
b0 "
b1 !
$end
#5000000
0$
#10000000
1$
#15000000
0$
#20000000
1$
#25000000
0$
#30000000
1$
#35000000
0$
#40000000
1$
#45000000
0$
#50000000
1$
#55000000
0$
#60000000
1$
#65000000
0$
#70000000
1$
#75000000
0$
#80000000
1$
#85000000
0$
#90000000
1&
1$
#95000000
0$
#100000000
b11 C
b101 K
b11 A
b1 B
b101 I
b10 J
b1 =
b1 "
b1 ,
b1 0
b1 >
b1 E
b10 /
b10 F
b1 M
b11 .
b11 N
1$
#100000001
0&
#105000001
0$
#110000001
b11 K
b10 C
b11 I
b0 J
b10 A
b0 B
b0 M
b0 .
b0 N
b0 E
b0 /
b0 F
b0 =
b0 "
b0 ,
b0 0
b0 >
1$
#115000001
0$
#120000001
1$
#125000001
0$
#130000001
1$
#135000001
0$
#140000001
1$
#145000001
0$
#150000001
1$
#155000001
0$
#160000001
1$
#165000001
0$
#170000001
1$
#175000001
0$
#180000001
1$
#185000001
0$
#190000001
1$
#195000001
0$
#200000001
b10101 ;
b10110 C
b10111 K
b10101 9
b10101 6
b10101 8
b10110 A
b10110 5
b10110 @
b10111 I
b10111 4
b10111 H
b10100 '
b10100 )
1&
1$
#205000001
0$
#210000001
b101011 K
b101001 C
b100111 ;
b101011 I
b10100 J
b101001 A
b10011 B
b100111 9
b10010 :
b1 M
b10111 .
b10111 N
b1 E
b10110 /
b10110 F
b1 =
b10101 "
b10101 ,
b10101 0
b10101 >
1$
#215000001
0$
#220000001
b110111 ;
b111001 C
b111100 K
b110111 9
b100010 :
b111001 A
b100011 B
b111100 I
b100101 J
b10 =
b100111 "
b100111 ,
b100111 0
b100111 >
b10 E
b101001 /
b101001 F
b10 M
b101011 .
b101011 N
1$
#225000001
0$
#230000001
b1001011 K
b1000111 C
b1000101 ;
b1001011 I
b110100 J
b1000111 A
b110001 B
b1000101 9
b110000 :
b11 M
b111100 .
b111100 N
b11 E
b111001 /
b111001 F
b11 =
b110111 "
b110111 ,
b110111 0
b110111 >
1$
#235000001
0$
#240000001
b1010001 ;
b1010100 C
b1011000 K
b1010001 9
b111100 :
b1010100 A
b111110 B
b1011000 I
b1000001 J
b100 =
b1000101 "
b1000101 ,
b1000101 0
b1000101 >
b100 E
b1000111 /
b1000111 F
b100 M
b1001011 .
b1001011 N
1$
#245000001
0$
#250000001
b1100100 K
b1011111 C
b1011011 ;
b1100100 I
b1001101 J
b1011111 A
b1001001 B
b1011011 9
b1000110 :
b101 M
b1011000 .
b1011000 N
b101 E
b1010100 /
b1010100 F
b101 =
b1010001 "
b1010001 ,
b1010001 0
b1010001 >
1$
#255000001
0$
#260000001
b1100100 ;
b1101001 C
b1101110 K
b1100100 9
b1001111 :
b1101001 A
b1010011 B
b1101110 I
b1010111 J
b110 =
b1011011 "
b1011011 ,
b1011011 0
b1011011 >
b110 E
b1011111 /
b1011111 F
b110 M
b1100100 .
b1100100 N
1$
#265000001
0$
#270000001
b1110111 K
b1110001 C
b1101100 ;
b1110111 I
b1100000 J
b1110001 A
b1011011 B
b1101100 9
b1010111 :
b11111001 L
b111 M
b1101110 .
b1101110 N
b11111001 D
b111 E
b1101001 /
b1101001 F
b11111001 <
b111 =
b1100100 "
b1100100 ,
b1100100 0
b1100100 >
1$
#275000001
0$
#280000001
b1110011 ;
b1111000 C
b1111111 K
b1110011 9
b1011110 :
b1111000 A
b1100010 B
b1111111 I
b1101000 J
b11111000 <
b1000 =
b1101100 "
b1101100 ,
b1101100 0
b1101100 >
b11111000 D
b1000 E
b1110001 /
b1110001 F
b11111000 L
b1000 M
b1110111 .
b1110111 N
1$
#285000001
0$
#290000001
b10000110 K
b1111111 C
b1111001 ;
b10000110 I
b1101111 J
b1111111 A
b1101001 B
b1111001 9
b1100100 :
b11110110 L
b1001 M
b1111111 .
b1111111 N
b11110110 D
b1001 E
b1111000 /
b1111000 F
b11110110 <
b1001 =
b1110011 "
b1110011 ,
b1110011 0
b1110011 >
1$
#295000001
0$
#300000001
b1111110 ;
b10000101 C
b10001100 K
b1111110 9
b1101001 :
b10000101 A
b1101111 B
b10001100 I
b1110101 J
b11110100 <
b1010 =
b1111001 "
b1111001 ,
b1111001 0
b1111001 >
b11110100 D
b1010 E
b1111111 /
b1111111 F
b11110100 L
b1010 M
b10000110 .
b10000110 N
1$
#305000001
0$
#310000001
b10010001 K
b10001010 C
b10000011 ;
b10010001 I
b1111010 J
b10001010 A
b1110100 B
b10000011 9
b1101110 :
b11110010 L
b1011 M
b10001100 .
b10001100 N
b11110010 D
b1011 E
b10000101 /
b10000101 F
b11110010 <
b1011 =
b1111110 "
b1111110 ,
b1111110 0
b1111110 >
1$
#315000001
0$
#320000001
b10000111 ;
b10001110 C
b10010101 K
b10000111 9
b1110010 :
b10001110 A
b1111000 B
b10010101 I
b1111110 J
b11110000 <
b1100 =
b10000011 "
b10000011 ,
b10000011 0
b10000011 >
b11110000 D
b1100 E
b10001010 /
b10001010 F
b11110000 L
b1100 M
b10010001 .
b10010001 N
1$
#325000001
0$
#330000001
b10011001 K
b10010010 C
b10001011 ;
b10011001 I
b10000010 J
b10010010 A
b1111100 B
b10001011 9
b1110110 :
b11101110 L
b1101 M
b10010101 .
b10010101 N
b11101110 D
b1101 E
b10001110 /
b10001110 F
b11101110 <
b1101 =
b10000111 "
b10000111 ,
b10000111 0
b10000111 >
1$
#335000001
0$
#340000001
b10001110 ;
b10010101 C
b10011100 K
b10001110 9
b1111001 :
b10010101 A
b1111111 B
b10011100 I
b10000101 J
b11101100 <
b1110 =
b10001011 "
b10001011 ,
b10001011 0
b10001011 >
b11101100 D
b1110 E
b10010010 /
b10010010 F
b11101100 L
b1110 M
b10011001 .
b10011001 N
1$
#345000001
0$
#350000001
b10011111 K
b10011000 C
b10010001 ;
b10011111 I
b10001000 J
b10011000 A
b10000010 B
b10010001 9
b1111100 :
b11101010 L
b1111 M
b10011100 .
b10011100 N
b11101010 D
b1111 E
b10010101 /
b10010101 F
b11101010 <
b1111 =
b10001110 "
b10001110 ,
b10001110 0
b10001110 >
1$
#355000001
0$
#360000001
b10010011 ;
b10011011 C
b10100010 K
b10010011 9
b1111110 :
b10011011 A
b10000101 B
b10100010 I
b10001011 J
b11101000 <
b10000 =
b10010001 "
b10010001 ,
b10010001 0
b10010001 >
b11101000 D
b10000 E
b10011000 /
b10011000 F
b11101000 L
b10000 M
b10011111 .
b10011111 N
1$
#365000001
0$
#370000001
b10100100 K
b10011101 C
b10010101 ;
b10100100 I
b10001101 J
b10011101 A
b10000111 B
b10010101 9
b10000000 :
b11100101 L
b10001 M
b10100010 .
b10100010 N
b11100101 D
b10001 E
b10011011 /
b10011011 F
b11100101 <
b10001 =
b10010011 "
b10010011 ,
b10010011 0
b10010011 >
1$
#375000001
0$
#380000001
b10010111 ;
b10011111 C
b10100110 K
b10010111 9
b10000010 :
b10011111 A
b10001001 B
b10100110 I
b10001111 J
b11100010 <
b10010 =
b10010101 "
b10010101 ,
b10010101 0
b10010101 >
b11100010 D
b10010 E
b10011101 /
b10011101 F
b11100010 L
b10010 M
b10100100 .
b10100100 N
1$
#385000001
0$
#390000001
b10101000 K
b10100001 C
b10011001 ;
b10101000 I
b10010001 J
b10100001 A
b10001011 B
b10011001 9
b10000100 :
b11011111 L
b10011 M
b10100110 .
b10100110 N
b11011111 D
b10011 E
b10011111 /
b10011111 F
b11011111 <
b10011 =
b10010111 "
b10010111 ,
b10010111 0
b10010111 >
1$
#395000001
0$
#400000001
b10011010 ;
b10100010 C
b10101010 K
b10011010 9
b10000101 :
b10100010 A
b10001100 B
b10101010 I
b10010011 J
b11011100 <
b10100 =
b10011001 "
b10011001 ,
b10011001 0
b10011001 >
b11011100 D
b10100 E
b10100001 /
b10100001 F
b11011100 L
b10100 M
b10101000 .
b10101000 N
1$
#405000001
0$
#410000001
b10101011 K
b10100011 C
b10011011 ;
b10101011 I
b10010100 J
b10100011 A
b10001101 B
b10011011 9
b10000110 :
b11011001 L
b10101 M
b10101010 .
b10101010 N
b11011001 D
b10101 E
b10100010 /
b10100010 F
b11011001 <
b10101 =
b10011010 "
b10011010 ,
b10011010 0
b10011010 >
1$
#415000001
0$
#420000001
b10011100 ;
b10100100 C
b10101100 K
b10011100 9
b10000111 :
b10100100 A
b10001110 B
b10101100 I
b10010101 J
b11010110 <
b10110 =
b10011011 "
b10011011 ,
b10011011 0
b10011011 >
b11010110 D
b10110 E
b10100011 /
b10100011 F
b11010110 L
b10110 M
b10101011 .
b10101011 N
1$
#425000001
0$
#430000001
b10101101 K
b10100101 C
b10011101 ;
b10101101 I
b10010110 J
b10100101 A
b10001111 B
b10011101 9
b10001000 :
b11010011 L
b10111 M
b10101100 .
b10101100 N
b11010011 D
b10111 E
b10100100 /
b10100100 F
b11010011 <
b10111 =
b10011100 "
b10011100 ,
b10011100 0
b10011100 >
1$
#435000001
0$
#440000001
b10011110 ;
b10100110 C
b10101110 K
b10011110 9
b10001001 :
b10100110 A
b10010000 B
b10101110 I
b10010111 J
b11010000 <
b11000 =
b10011101 "
b10011101 ,
b10011101 0
b10011101 >
b11010000 D
b11000 E
b10100101 /
b10100101 F
b11010000 L
b11000 M
b10101101 .
b10101101 N
1$
#445000001
0$
#450000001
b10101111 K
b10100111 C
b10011111 ;
b10101111 I
b10011000 J
b10100111 A
b10010001 B
b10011111 9
b10001010 :
b11001100 L
b11001 M
b10101110 .
b10101110 N
b11001100 D
b11001 E
b10100110 /
b10100110 F
b11001100 <
b11001 =
b10011110 "
b10011110 ,
b10011110 0
b10011110 >
1$
#455000001
0$
#460000001
b10100000 ;
b10101000 C
b10110000 K
b10100000 9
b10001011 :
b10101000 A
b10010010 B
b10110000 I
b10011001 J
b11001000 <
b11010 =
b10011111 "
b10011111 ,
b10011111 0
b10011111 >
b11001000 D
b11010 E
b10100111 /
b10100111 F
b11001000 L
b11010 M
b10101111 .
b10101111 N
1$
#465000001
0$
#470000001
b10110001 K
b10101001 C
b10100001 ;
b10110001 I
b10011010 J
b10101001 A
b10010011 B
b10100001 9
b10001100 :
b11000100 L
b11011 M
b10110000 .
b10110000 N
b11000100 D
b11011 E
b10101000 /
b10101000 F
b11000100 <
b11011 =
b10100000 "
b10100000 ,
b10100000 0
b10100000 >
1$
#475000001
0$
#480000001
b11000000 <
b11100 =
b10100001 "
b10100001 ,
b10100001 0
b10100001 >
b11000000 D
b11100 E
b10101001 /
b10101001 F
b11000000 L
b11100 M
b10110001 .
b10110001 N
1$
#485000001
0$
#490000001
b10111100 L
b11101 M
b10111100 D
b11101 E
b10111100 <
b11101 =
1$
#495000001
0$
#500000001
b10111000 <
b11110 =
b10111000 D
b11110 E
b10111000 L
b11110 M
1$
#505000001
0$
#510000001
b10110100 L
b11111 M
b10110100 D
b11111 E
b10110100 <
b11111 =
1$
#515000001
0$
#520000001
b10110000 <
b100000 =
b10110000 D
b100000 E
b100000 #
b100000 -
11
b10110000 L
b100000 M
1$
#525000001
0$
#530000001
b10101011 L
b0 M
b10101011 D
b100001 E
b10101011 <
b100001 =
1$
#535000001
0$
#540000001
b10100110 <
b100010 =
b1100000 #
b1100000 -
12
b10100110 D
b100010 E
1$
#545000001
0$
#550000001
b0 E
12
b10100001 D
b11100000 #
b11100000 -
13
b10100001 <
b100011 =
1$
#555000001
0$
#560000001
b0 =
13
b10011100 <
b10100000 #
b10100000 -
02
b11001011 D
1$
#565000001
0$
#570000001
b1 E
b100000 #
b100000 -
03
b11000100 <
1$
#575000001
0$
#580000001
b1 =
b10 E
1$
#585000001
0$
#590000001
b11 E
b10 =
1$
#595000001
0$
#600000001
b11 =
b100 E
1$
#605000001
0$
#610000001
b101 E
b100 =
1$
#615000001
0$
#620000001
b101 =
b110 E
1$
#625000001
0$
#630000001
b11001010 D
b111 E
b110 =
1$
#635000001
0$
#640000001
b11000011 <
b111 =
b11001001 D
b1000 E
1$
#645000001
0$
#650000001
b11000111 D
b1001 E
b11000010 <
b1000 =
1$
#655000001
0$
#660000001
b11000000 <
b1001 =
b11000101 D
b1010 E
1$
#665000001
0$
#670000001
b11000011 D
b1011 E
b10111110 <
b1010 =
1$
#675000001
0$
#680000001
b10111100 <
b1011 =
b11000001 D
b1100 E
1$
#685000001
0$
#690000001
b10111111 D
b1101 E
b10111010 <
b1100 =
1$
#695000001
0$
#700000001
b10111000 <
b1101 =
b10111101 D
b1110 E
1$
#705000001
0$
#710000001
b10111011 D
b1111 E
b10110110 <
b1110 =
1$
#715000001
0$
#720000001
b10110100 <
b1111 =
b10111001 D
b10000 E
1$
#725000001
0$
#730000001
b10110110 D
b10001 E
b10110010 <
b10000 =
1$
#735000001
0$
#740000001
b10101111 <
b10001 =
b10110011 D
b10010 E
1$
#745000001
0$
#750000001
b10110000 D
b10011 E
b10101100 <
b10010 =
1$
#755000001
0$
#760000001
b10101001 <
b10011 =
b10101101 D
b10100 E
1$
#765000001
0$
#770000001
b10101010 D
b10101 E
b10100110 <
b10100 =
1$
#775000001
0$
#780000001
b10100011 <
b10101 =
b1100000 #
b1100000 -
12
b10100111 D
b10110 E
1$
#785000001
0$
#790000001
b0 E
12
b10100100 D
b11100000 #
b11100000 -
13
b10100000 <
b10110 =
1$
#795000001
0$
#800000001
b0 =
13
b10011101 <
b10100000 #
b10100000 -
02
b11001110 D
1$
#805000001
0$
#810000001
b1 E
b100000 #
b100000 -
03
b11000101 <
1$
#815000001
0$
#820000001
b1 =
b10 E
1$
#825000001
0$
#830000001
b11 E
b10 =
1$
#835000001
0$
#840000001
b11 =
b100 E
1$
#845000001
0$
#850000001
b101 E
b100 =
1$
#855000001
0$
#860000001
b101 =
b110 E
1$
#865000001
0$
#870000001
b11001101 D
b111 E
b110 =
1$
#875000001
0$
#880000001
b11000100 <
b111 =
b11001100 D
b1000 E
1$
#885000001
0$
#890000001
b11001010 D
b1001 E
b11000011 <
b1000 =
1$
#895000001
0$
#900000001
b11000001 <
b1001 =
b11001000 D
b1010 E
1$
#905000001
0$
#910000001
b11000110 D
b1011 E
b10111111 <
b1010 =
1$
#915000001
0$
#920000001
b10111101 <
b1011 =
b11000100 D
b1100 E
1$
#925000001
0$
#930000001
b11000010 D
b1101 E
b10111011 <
b1100 =
1$
#935000001
0$
#940000001
b10111001 <
b1101 =
b11000000 D
b1110 E
1$
#945000001
0$
#950000001
b10111110 D
b1111 E
b10110111 <
b1110 =
1$
#955000001
0$
#960000001
b10110101 <
b1111 =
b10111100 D
b10000 E
1$
#965000001
0$
#970000001
b10111001 D
b10001 E
b10110011 <
b10000 =
1$
#975000001
0$
#980000001
b10110000 <
b10001 =
b10110110 D
b10010 E
1$
#985000001
0$
#990000001
b10110011 D
b10011 E
b10101101 <
b10010 =
1$
#995000001
0$
#1000000001
b10101010 <
b10011 =
b10110000 D
b10100 E
1$
#1005000001
0$
#1010000001
b10101101 D
b10101 E
b10100111 <
b10100 =
1$
#1015000001
0$
#1020000001
b10100100 <
b10101 =
b10101010 D
b10110 E
1$
#1025000001
0$
#1030000001
12
b10100111 D
b10111 E
b11100000 #
b11100000 -
13
b10100001 <
b10110 =
1$
#1035000001
0$
#1040000001
b0 =
13
b10011110 <
b0 E
b11100000 #
b11100000 -
12
b10100100 D
1$
#1045000001
0$
#1050000001
02
b11001110 D
b100000 #
b100000 -
03
b11000110 <
1$
#1055000001
0$
#1060000001
b1 =
b1 E
1$
#1065000001
0$
#1070000001
b10 E
b10 =
1$
#1075000001
0$
#1080000001
b11 =
b11 E
1$
#1085000001
0$
#1090000001
b100 E
b100 =
1$
#1095000001
0$
#1100000001
b101 =
b101 E
1$
#1105000001
0$
#1110000001
b110 E
b110 =
1$
#1115000001
0$
#1120000001
b11000101 <
b111 =
b11001101 D
b111 E
1$
#1125000001
0$
#1130000001
b11001100 D
b1000 E
b11000100 <
b1000 =
1$
#1135000001
0$
#1140000001
b11000010 <
b1001 =
b11001010 D
b1001 E
1$
#1145000001
0$
#1150000001
b11001000 D
b1010 E
b11000000 <
b1010 =
1$
#1155000001
0$
#1160000001
b10111110 <
b1011 =
b11000110 D
b1011 E
1$
#1165000001
0$
#1170000001
b11000100 D
b1100 E
b10111100 <
b1100 =
1$
#1175000001
0$
#1180000001
b10111010 <
b1101 =
b11000010 D
b1101 E
1$
#1185000001
0$
#1190000001
b11000000 D
b1110 E
b10111000 <
b1110 =
1$
#1195000001
0$
#1200000001
b10110110 <
b1111 =
b10111110 D
b1111 E
1$
#1205000001
0$
#1210000001
b10111100 D
b10000 E
b10110100 <
b10000 =
1$
#1215000001
0$
#1220000001
b10110001 <
b10001 =
b10111001 D
b10001 E
1$
#1225000001
0$
#1230000001
b10110110 D
b10010 E
b10101110 <
b10010 =
1$
#1235000001
0$
#1240000001
b10101011 <
b10011 =
b10110011 D
b10011 E
1$
#1245000001
0$
#1250000001
b10110000 D
b10100 E
b10101000 <
b10100 =
1$
#1255000001
0$
#1260000001
b10100101 <
b10101 =
b10101101 D
b10101 E
1$
#1265000001
0$
#1270000001
b10101010 D
b10110 E
b10100010 <
b10110 =
1$
#1275000001
0$
#1280000001
13
b10011111 <
b10111 =
b11100000 #
b11100000 -
12
b10100111 D
b10111 E
1$
#1285000001
0$
#1290000001
b0 E
12
b10100100 D
b0 =
b11100000 #
b11100000 -
13
b10011100 <
1$
#1295000001
0$
#1300000001
03
b11000100 <
b100000 #
b100000 -
02
b11001110 D
1$
#1305000001
0$
#1310000001
b1 E
b1 =
1$
#1315000001
0$
#1320000001
b10 =
b10 E
1$
#1325000001
0$
#1330000001
b11 E
b11 =
1$
#1335000001
0$
#1340000001
b100 =
b100 E
1$
#1345000001
0$
#1350000001
b101 E
b101 =
1$
#1355000001
0$
#1360000001
b110 =
b110 E
1$
#1365000001
0$
#1370000001
b11001101 D
b111 E
b11000011 <
b111 =
1$
#1375000001
0$
#1380000001
b11000010 <
b1000 =
b11001100 D
b1000 E
1$
#1385000001
0$
#1390000001
b11001010 D
b1001 E
b11000000 <
b1001 =
1$
#1395000001
0$
#1400000001
b10111110 <
b1010 =
b11001000 D
b1010 E
1$
#1405000001
0$
#1410000001
b11000110 D
b1011 E
b10111100 <
b1011 =
1$
#1415000001
0$
#1420000001
b10111010 <
b1100 =
b11000100 D
b1100 E
1$
#1425000001
0$
#1430000001
b11000010 D
b1101 E
b10111000 <
b1101 =
1$
#1435000001
0$
#1440000001
b10110110 <
b1110 =
b11000000 D
b1110 E
1$
#1445000001
0$
#1450000001
b10111110 D
b1111 E
b10110100 <
b1111 =
1$
#1455000001
0$
#1460000001
b10110010 <
b10000 =
b10111100 D
b10000 E
1$
#1465000001
0$
#1470000001
b10111001 D
b10001 E
b10101111 <
b10001 =
1$
#1475000001
0$
#1480000001
b10101100 <
b10010 =
b10110110 D
b10010 E
1$
#1485000001
0$
#1490000001
b10110011 D
b10011 E
b10101001 <
b10011 =
1$
#1495000001
0$
#1500000001
b10100110 <
b10100 =
b10110000 D
b10100 E
1$
#1505000001
0$
#1510000001
b10101101 D
b10101 E
b10100011 <
b10101 =
1$
#1515000001
0$
#1520000001
b10100000 #
b10100000 -
13
b10100000 <
b10110 =
b10101010 D
b10110 E
1$
#1525000001
0$
#1530000001
12
b10100111 D
b10111 E
b0 =
b11100000 #
b11100000 -
13
b10011101 <
1$
#1535000001
0$
#1540000001
03
b11000101 <
b0 E
b1100000 #
b1100000 -
12
b10100100 D
1$
#1545000001
0$
#1550000001
b100000 #
b100000 -
02
b11001110 D
b1 =
1$
#1555000001
0$
#1560000001
b10 =
b1 E
1$
#1565000001
0$
#1570000001
b10 E
b11 =
1$
#1575000001
0$
#1580000001
b100 =
b11 E
1$
#1585000001
0$
#1590000001
b100 E
b101 =
1$
#1595000001
0$
#1600000001
b110 =
b101 E
1$
#1605000001
0$
#1610000001
b110 E
b11000100 <
b111 =
1$
#1615000001
0$
#1620000001
b11000011 <
b1000 =
b11001101 D
b111 E
1$
#1625000001
0$
#1630000001
b11001100 D
b1000 E
b11000001 <
b1001 =
1$
#1635000001
0$
#1640000001
b10111111 <
b1010 =
b11001010 D
b1001 E
1$
#1645000001
0$
#1650000001
b11001000 D
b1010 E
b10111101 <
b1011 =
1$
#1655000001
0$
#1660000001
b10111011 <
b1100 =
b11000110 D
b1011 E
1$
#1665000001
0$
#1670000001
b11000100 D
b1100 E
b10111001 <
b1101 =
1$
#1675000001
0$
#1680000001
b10110111 <
b1110 =
b11000010 D
b1101 E
1$
#1685000001
0$
#1690000001
b11000000 D
b1110 E
b10110101 <
b1111 =
1$
#1695000001
0$
#1700000001
b10110011 <
b10000 =
b10111110 D
b1111 E
1$
#1705000001
0$
#1710000001
b10111100 D
b10000 E
b10110000 <
b10001 =
1$
#1715000001
0$
#1720000001
b10101101 <
b10010 =
b10111001 D
b10001 E
1$
#1725000001
0$
#1730000001
b10110110 D
b10010 E
b10101010 <
b10011 =
1$
#1735000001
0$
#1740000001
b10100111 <
b10100 =
b10110011 D
b10011 E
1$
#1745000001
0$
#1750000001
b10110000 D
b10100 E
b10100100 <
b10101 =
1$
#1755000001
0$
#1760000001
b10100000 #
b10100000 -
13
b10100001 <
b10110 =
b10101101 D
b10101 E
1$
#1765000001
0$
#1770000001
b10101010 D
b10110 E
b0 =
b10100000 #
b10100000 -
13
b10011110 <
1$
#1775000001
0$
#1780000001
03
b11000110 <
b1100000 #
b1100000 -
12
b10100111 D
b10111 E
1$
#1785000001
0$
#1790000001
b0 E
b1100000 #
b1100000 -
12
b10100100 D
b1 =
1$
#1795000001
0$
#1800000001
b10 =
b100000 #
b100000 -
02
b11001110 D
1$
#1805000001
0$
#1810000001
b1 E
b11 =
1$
#1815000001
0$
#1820000001
b100 =
b10 E
1$
#1825000001
0$
#1830000001
b11 E
b101 =
1$
#1835000001
0$
#1840000001
b110 =
b100 E
1$
#1845000001
0$
#1850000001
b101 E
b11000101 <
b111 =
1$
#1855000001
0$
#1860000001
b11000100 <
b1000 =
b110 E
1$
#1865000001
0$
#1870000001
b11001101 D
b111 E
b11000010 <
b1001 =
1$
#1875000001
0$
#1880000001
b11000000 <
b1010 =
b11001100 D
b1000 E
1$
#1885000001
0$
#1890000001
b11001010 D
b1001 E
b10111110 <
b1011 =
1$
#1895000001
0$
#1900000001
b10111100 <
b1100 =
b11001000 D
b1010 E
1$
#1905000001
0$
#1910000001
b11000110 D
b1011 E
b10111010 <
b1101 =
1$
#1915000001
0$
#1920000001
b10111000 <
b1110 =
b11000100 D
b1100 E
1$
#1925000001
0$
#1930000001
b11000010 D
b1101 E
b10110110 <
b1111 =
1$
#1935000001
0$
#1940000001
b10110100 <
b10000 =
b11000000 D
b1110 E
1$
#1945000001
0$
#1950000001
b10111110 D
b1111 E
b10110001 <
b10001 =
1$
#1955000001
0$
#1960000001
b10101110 <
b10010 =
b10111100 D
b10000 E
1$
#1965000001
0$
#1970000001
b10111001 D
b10001 E
b10101011 <
b10011 =
1$
#1975000001
0$
#1980000001
b10101000 <
b10100 =
b10110110 D
b10010 E
1$
#1985000001
0$
#1990000001
b10110011 D
b10011 E
b10100101 <
b10101 =
1$
#1995000001
0$
#2000000001
b10100010 <
b10110 =
b10110000 D
b10100 E
1$
#2005000001
0$
#2010000001
b10101101 D
b10101 E
b10100000 #
b10100000 -
13
b10011111 <
b10111 =
1$
#2015000001
0$
#2020000001
b0 =
b10100000 #
b10100000 -
13
b10011100 <
b10101010 D
b10110 E
1$
#2025000001
0$
#2030000001
12
b10100111 D
b10111 E
b1100000 #
b1100000 -
03
b11000100 <
1$
#2035000001
0$
#2040000001
b1 =
b0 E
b1100000 #
b1100000 -
12
b10100100 D
1$
#2045000001
0$
#2050000001
b100000 #
b100000 -
02
b11001110 D
b10 =
1$
#2055000001
0$
#2060000001
b11 =
b1 E
1$
#2065000001
0$
#2070000001
b10 E
b100 =
1$
#2075000001
0$
#2080000001
b101 =
b11 E
1$
#2085000001
0$
#2090000001
b100 E
b110 =
1$
#2095000001
0$
#2100000001
b11000011 <
b111 =
b101 E
1$
#2105000001
0$
#2110000001
b110 E
b11000010 <
b1000 =
1$
#2115000001
0$
#2120000001
b11000000 <
b1001 =
b11001101 D
b111 E
1$
#2125000001
0$
#2130000001
b11001100 D
b1000 E
b10111110 <
b1010 =
1$
#2135000001
0$
#2140000001
b10111100 <
b1011 =
b11001010 D
b1001 E
1$
#2145000001
0$
#2150000001
b11001000 D
b1010 E
b10111010 <
b1100 =
1$
#2155000001
0$
#2160000001
b10111000 <
b1101 =
b11000110 D
b1011 E
1$
#2165000001
0$
#2170000001
b11000100 D
b1100 E
b10110110 <
b1110 =
1$
#2175000001
0$
#2180000001
b10110100 <
b1111 =
b11000010 D
b1101 E
1$
#2185000001
0$
#2190000001
b11000000 D
b1110 E
b10110010 <
b10000 =
1$
#2195000001
0$
#2200000001
b10101111 <
b10001 =
b10111110 D
b1111 E
1$
#2205000001
0$
#2210000001
b10111100 D
b10000 E
b10101100 <
b10010 =
1$
#2215000001
0$
#2220000001
b10101001 <
b10011 =
b10111001 D
b10001 E
1$
#2225000001
0$
#2230000001
b10110110 D
b10010 E
b10100110 <
b10100 =
1$
#2235000001
0$
#2240000001
b10100011 <
b10101 =
b10110011 D
b10011 E
1$
#2245000001
0$
#2250000001
b10110000 D
b10100 E
b10100000 #
b10100000 -
13
b10100000 <
b10110 =
1$
#2255000001
0$
#2260000001
b0 =
b10100000 #
b10100000 -
13
b10011101 <
b10101101 D
b10101 E
1$
#2265000001
0$
#2270000001
b10101010 D
b10110 E
b100000 #
b100000 -
03
b11000101 <
1$
#2275000001
0$
#2280000001
b1 =
b1100000 #
b1100000 -
12
b10100111 D
b10111 E
1$
#2285000001
0$
#2290000001
b0 E
b1100000 #
b1100000 -
12
b10100100 D
b10 =
1$
#2295000001
0$
#2300000001
b11 =
b100000 #
b100000 -
02
b11001110 D
1$
#2305000001
0$
#2310000001
b1 E
b100 =
1$
#2315000001
0$
#2320000001
b101 =
b10 E
1$
#2325000001
0$
#2330000001
b11 E
b110 =
1$
#2335000001
0$
#2340000001
b11000100 <
b111 =
b100 E
1$
#2345000001
0$
#2350000001
b101 E
b11000011 <
b1000 =
1$
#2355000001
0$
#2360000001
b11000001 <
b1001 =
b110 E
1$
#2365000001
0$
#2370000001
b11001101 D
b111 E
b10111111 <
b1010 =
1$
#2375000001
0$
#2380000001
b10111101 <
b1011 =
b11001100 D
b1000 E
1$
#2385000001
0$
#2390000001
b11001010 D
b1001 E
b10111011 <
b1100 =
1$
#2395000001
0$
#2400000001
b10111001 <
b1101 =
b11001000 D
b1010 E
1$
#2405000001
0$
#2410000001
b11000110 D
b1011 E
b10110111 <
b1110 =
1$
#2415000001
0$
#2420000001
b10110101 <
b1111 =
b11000100 D
b1100 E
1$
#2425000001
0$
#2430000001
b11000010 D
b1101 E
b10110011 <
b10000 =
1$
#2435000001
0$
#2440000001
b10110000 <
b10001 =
b11000000 D
b1110 E
1$
